<?xml version="1.0" encoding="UTF-8" standalone="no"?>
<svg
   xmlns:dc="http://purl.org/dc/elements/1.1/"
   xmlns:cc="http://creativecommons.org/ns#"
   xmlns:rdf="http://www.w3.org/1999/02/22-rdf-syntax-ns#"
   xmlns:svg="http://www.w3.org/2000/svg"
   xmlns="http://www.w3.org/2000/svg"
   xmlns:sodipodi="http://sodipodi.sourceforge.net/DTD/sodipodi-0.dtd"
   xmlns:inkscape="http://www.inkscape.org/namespaces/inkscape"
   viewBox="0 0 96 96.000001"
   height="96"
   width="96"
   version="1.1"
   id="svg3775"
   sodipodi:docname="add-to-favs.svg"
   inkscape:version="0.92.3 (2405546, 2018-03-11)">
  <metadata
     id="metadata3781">
    <rdf:RDF>
      <cc:Work
         rdf:about="">
        <dc:format>image/svg+xml</dc:format>
        <dc:type
           rdf:resource="http://purl.org/dc/dcmitype/StillImage" />
      </cc:Work>
    </rdf:RDF>
  </metadata>
  <defs
     id="defs3779" />
  <sodipodi:namedview
     pagecolor="#ffffff"
     bordercolor="#666666"
     borderopacity="1"
     objecttolerance="10"
     gridtolerance="10"
     guidetolerance="10"
     inkscape:pageopacity="0"
     inkscape:pageshadow="2"
     inkscape:window-width="1853"
     inkscape:window-height="1025"
     id="namedview3777"
     showgrid="false"
     inkscape:zoom="8.7916667"
     inkscape:cx="48"
     inkscape:cy="48"
     inkscape:window-x="67"
     inkscape:window-y="27"
     inkscape:window-maximized="1"
     inkscape:current-layer="g3773" />
  <g
     color="#000"
     id="g3773">
    <path
       overflow="visible"
       fill="none"
       d="M96 0v96H0V0z"
       id="path3767" />
    <path
       d="M70 53l4-1v40h-4z"
       overflow="visible"
       fill="gray"
       id="path3769" />
    <rect
       id="rect3783"
       width="40"
       height="4"
       x="52"
       y="70"
       style="fill:#808080;fill-opacity:1" />
    <path
       sodipodi:type="star"
       style="fill:#808080;fill-opacity:1"
       id="path3785"
       sodipodi:sides="5"
       sodipodi:cx="32.64455"
       sodipodi:cy="34.578197"
       sodipodi:r1="30.825483"
       sodipodi:r2="12.355377"
       sodipodi:arg1="0.96641853"
       sodipodi:arg2="1.5947371"
       inkscape:flatsided="false"
       inkscape:rounded="0"
       inkscape:randomized="0"
       d="M 50.161137,59.943126 32.348781,46.930034 13.933993,59.075656 20.805858,38.113832 3.5642028,24.353531 25.623605,24.411503 33.382465,3.7615477 40.14406,24.7592 62.180954,25.757127 44.300447,38.676418 Z"
       inkscape:transform-center-x="0.29696192"
       inkscape:transform-center-y="-2.2001149"
       transform="matrix(1.0698569,0,0,1.0506145,-0.24898429,-0.19038882)" />
  </g>
</svg>
